{"q":"无界面chrome","page":7,"type":"note","total_count":10000,"per_page":10,"total_pages":100,"order_by":"default","entries":[{"id":13970908,"title":"[转载]fiddler<em class='search-result-highlight'>无</em>法抓取<em class='search-result-highlight'>chrome</em>，IE正常抓取，解决方法","slug":"c86bffa535e1","content":"……由于<em class='search-result-highlight'>无</em>线开发需要配置UA，我使用<em class='search-result-highlight'>chrome</em>进行访问，但是今儿一早过来，发现fiddler<em class='search-result-highlight'>无</em>法抓取<em class='search-result-highlight'>chrome</em>的请求了。想想昨天对<em class='search-result-highlight'>chrome</em>进行的操作，我觉得问题应该出在代理的身上。……实际上fiddler是可以抓<em class='search-result-highlight'>chrome</em>的请求的。由于我的<em class='search-result-highlight'>chrome</em>安装了代理管理的插件SwitchySharp，<em class='search-result-highlight'>无</em>论选择直接连接还是选择使用代理连接，插件都会屏蔽fiddler的设置。……真是鱼和熊掌不可兼得 转载网址： fiddler<em class='search-result-highlight'>无</em>法抓取<em class='search-result-highlight'>chrome</em>，IE正常抓取，解决方法……","user":{"id":2236533,"nickname":"zshanjun","slug":"e76fe0dd512c","avatar_url":"https://upload.jianshu.io/users/upload_avatars/2236533/1daddb3d1469.jpg"},"notebook":{"id":4614241,"name":"日记本"},"commentable":true,"public_comments_count":0,"likes_count":0,"views_count":2007,"total_rewards_count":0,"first_shared_at":"2017-06-28T09:27:21.000Z"},{"id":50279755,"title":"<em class='search-result-highlight'>Chrome</em>扩展推荐：最好用的免费网页截图工具之一，清晰<em class='search-result-highlight'>无</em>水印<em class='search-result-highlight'>无</em>需登录","slug":"1d2047e76888","content":"……FireShot FireShot是<em class='search-result-highlight'>Chrome</em>商店里最受欢迎的屏幕截图工具之一，2013年曾上榜外媒PCmag“100个最好用免费<em class='search-result-highlight'>Chrome</em>扩展”，目前的用户数量为228万左右。……最重要的是，FireShot截图<em class='search-result-highlight'>无</em>需登录账号，安装好扩展之后就能立即使用，用户保存的图片也没有任何水印。 如果你需要对截屏进行编辑和添加注释等高级操作，就需要购买会员了。……","user":{"id":13080328,"nickname":"扩展迷Extfans","slug":"fc8848c65d96","avatar_url":"https://upload.jianshu.io/users/upload_avatars/13080328/c292e7d6-3e62-4576-8b20-ef26a5c51bf5.png"},"notebook":{"id":27652341,"name":"chrome扩展推荐"},"commentable":true,"public_comments_count":0,"likes_count":2,"views_count":733,"total_rewards_count":0,"first_shared_at":"2019-07-09T02:23:52.000Z"},{"id":56158879,"title":"Kali linux<em class='search-result-highlight'>无</em>法使用<em class='search-result-highlight'>Chrome</em>原因及解决方法","slug":"28d95ffe24ec","content":"……作为<em class='search-result-highlight'>Chrome</em>的死忠粉，当然是要下<em class='search-result-highlight'>Chrome</em>用用的。 直到我安装之后，点击图标打不开<em class='search-result-highlight'>Chrome</em>，用Terminal启动又出现了下图的情况。……2.Kali<em class='search-result-highlight'>无</em>法使用<em class='search-result-highlight'>Chrome</em>原因 所以可以看出，“sandbox”是Chromium的安全机制中非常重要的一环。……3.如何解决Kali<em class='search-result-highlight'>无</em>法启动<em class='search-result-highlight'>Chrome</em> （1）在Kali中创建普通用户启动<em class='search-result-highlight'>Chrome</em>（较为繁琐） 由上述原因可知，<em class='search-result-highlight'>Chrome</em>禁止使用具有root权限的用户启动，因此创建一个非root权限用户启动<em class='search-result-highlight'>Chrome</em>……","user":{"id":20077919,"nickname":"humangear","slug":"a58409714302","avatar_url":"https://cdn2.jianshu.io/assets/default_avatar/4-3397163ecdb3855a0a4139c34a695885.jpg"},"notebook":{"id":40714449,"name":"Linux司马笔记"},"commentable":true,"public_comments_count":0,"likes_count":1,"views_count":190,"total_rewards_count":0,"first_shared_at":"2019-11-09T14:49:54.000Z"},{"id":36619054,"title":"<em class='search-result-highlight'>无</em>需密码即可窃取 <em class='search-result-highlight'>Chrome</em> 的 Cookie","slug":"bbbcf7e7d424","content":"……下次访问 facebook 的时候，你只需要提供这个 cookie，facebook 就可以定位你的账户信息，<em class='search-result-highlight'>无</em>需再输入密码。如果你成功的偷取了别人的 cookie 就可以访问别人的账户。……<em class='search-result-highlight'>Chrome</em> 中 Cookie 的安全性 <em class='search-result-highlight'>Chrome</em> 使用 “<em class='search-result-highlight'>Chrome</em> Safe Storage” 密码来加密他们的 Cookie。……第一步：运行 Headless <em class='search-result-highlight'>Chrome</em> 模式 运行 Headless <em class='search-result-highlight'>Chrome</em> 模式可以不显示窗口，而是在终端上运行代码。……","user":{"id":1908904,"nickname":"极小光","slug":"644fb0e0b9e1","avatar_url":"https://upload.jianshu.io/users/upload_avatars/1908904/3c3f3326bb95.gif"},"notebook":{"id":10390513,"name":"极光日报"},"commentable":true,"public_comments_count":0,"likes_count":3,"views_count":1691,"total_rewards_count":0,"first_shared_at":"2018-11-12T02:20:12.000Z"},{"id":14665471,"title":"selenium webdriver启动<em class='search-result-highlight'>Chrome</em>浏览器后<em class='search-result-highlight'>无</em>法输入网址的解决办法","slug":"b35dd8f15e1e","content":"……通过selenium webdriver启动<em class='search-result-highlight'>Chrome</em>浏览器，脚本如下： from seleniumimport webdriver browser = webdriver.<em class='search-result-highlight'>Chrome</em>() browser.get……browser.find_element_by_id(\"kw\").send_keys(\"selenium\") browser.find_element_by_id(\"su\").click() browser.quit() 浏览器启动成功，但是地址<em class='search-result-highlight'>无</em>法输入……下面是关于加载<em class='search-result-highlight'>Chrome</em>配置的方法（网上copy的，保存留用）： 一、加载所有<em class='search-result-highlight'>Chrome</em>配置 用<em class='search-result-highlight'>Chrome</em>地址栏输入<em class='search-result-highlight'>chrome</em>://version/，查看自己的“个人资料路径”，然后在浏览器启动时……","user":{"id":6935630,"nickname":"嘴角的痕轻抚摸","slug":"0db1928b1e46","avatar_url":"https://upload.jianshu.io/users/upload_avatars/6935630/26c2de3f-fe95-4064-868c-333f4e64fd33"},"notebook":{"id":14451816,"name":"日记本"},"commentable":true,"public_comments_count":0,"likes_count":1,"views_count":2146,"total_rewards_count":0,"first_shared_at":"2017-07-17T02:47:18.000Z"},{"id":41211158,"title":"ipad上的google <em class='search-result-highlight'>chrome</em>为什么<em class='search-result-highlight'>无</em>法使用插件？","slug":"b18f99ba173b","content":"……google <em class='search-result-highlight'>chrome</em> 与 safari 谷歌<em class='search-result-highlight'>Chrome</em>是像Safari一样的网络浏览器，但由谷歌而不是Apple构建。……有些人会认为<em class='search-result-highlight'>Chrome</em>更直观，即使在iOS上使用。 另一个主要的区别是<em class='search-result-highlight'>Chrome</em>是从谷歌和第三方的代码库汇编的，而Safari是由苹果公司创建的。……由于它是第三方应用程序，所以它的设置都不在“设置”的应用程序中;它们都可以让您进行控制，而<em class='search-result-highlight'>无</em>需离开<em class='search-result-highlight'>Chrome</em>。……","user":{"id":2235240,"nickname":"月影诉残心","slug":"843181d2decb","avatar_url":"https://upload.jianshu.io/users/upload_avatars/2235240/c1c64d53-7409-44f0-af34-3fc6931b6527.jpg"},"notebook":{"id":31536902,"name":"IT技术板块（T）"},"commentable":true,"public_comments_count":3,"likes_count":5,"views_count":35145,"total_rewards_count":0,"first_shared_at":"2019-02-11T14:54:08.000Z"},{"id":32867606,"title":"【译】<em class='search-result-highlight'>无</em>头 <em class='search-result-highlight'>Chrome</em>：服务端渲染 JS 页面的一个解决方案","slug":"ce84c77ecd53","content":"……TL;DR <em class='search-result-highlight'>无</em>头 <em class='search-result-highlight'>Chrome</em> 是一个将动态 JS 页面转成静态 HTML 页面的即插即用的解决方案。……<em class='search-result-highlight'>无</em>头 <em class='search-result-highlight'>Chrome</em> 做了所有的重活。三两行代码，SSR 页面带回家。……Server-Timing 的一个最佳用例是上报<em class='search-result-highlight'>无</em>头 <em class='search-result-highlight'>Chrome</em> 预渲染页面的时间！……","user":{"id":192464,"nickname":"苏星河","slug":"41764e7ece81","avatar_url":"https://upload.jianshu.io/users/upload_avatars/192464/5b5bd3c579b3.jpeg"},"notebook":{"id":396489,"name":"日记本"},"commentable":true,"public_comments_count":0,"likes_count":3,"views_count":2612,"total_rewards_count":0,"first_shared_at":"2018-09-29T09:28:02.000Z"},{"id":32297872,"title":"<em class='search-result-highlight'>Chrome</em>扩展推荐：<em class='search-result-highlight'>chrome</em>下载管理器，一种扩展多种功能","slug":"613ef1762362","content":"……（注意：是chrono不是<em class='search-result-highlight'>chrome</em>！） Chrono下载管理器是第一款基于<em class='search-result-highlight'>Chrome</em>浏览器的下载管理工具，功能非常全面。……功能 1.替换<em class='search-result-highlight'>Chrome</em>浏览器自带的下载管理<em class='search-result-highlight'>界面</em>，并启用快捷键Ctrl+J打开chrono下载管理器。 2.隐藏<em class='search-result-highlight'>Chrome</em>底部的下载内容栏。 3.随时可在扩展下拉窗口中查看下载列表。……比如：当浏览器关闭、重启后便<em class='search-result-highlight'>无</em>法继续上次的下载；<em class='search-result-highlight'>无</em>法为下载任务选择任意的存储位置，它们只能存储到<em class='search-result-highlight'>Chrome</em>默认下载位置或其子目录下。 点击此处下载……","user":{"id":13080328,"nickname":"扩展迷Extfans","slug":"fc8848c65d96","avatar_url":"https://upload.jianshu.io/users/upload_avatars/13080328/c292e7d6-3e62-4576-8b20-ef26a5c51bf5.png"},"notebook":{"id":27652341,"name":"chrome扩展推荐"},"commentable":true,"public_comments_count":1,"likes_count":2,"views_count":23768,"total_rewards_count":0,"first_shared_at":"2018-08-14T08:38:07.000Z"},{"id":10744160,"title":"hao123劫持篡改<em class='search-result-highlight'>chrome</em>主页，而且注册表检索hao123有很多<em class='search-result-highlight'>无</em>法删除项","slug":"971e8ad905c5","content":"……能用常规手段解决就用常规手段解决，不要轻易大动筋骨系统软件层面的修改 事源： 删除360安全卫士后，重启电脑后<em class='search-result-highlight'>chrome</em>打开后出现hao123的首页劫持 经过两天的搏杀后，感觉靠自己一人的力量可能<em class='search-result-highlight'>无</em>法根除……hao123的劫持，特此发问知乎er们求助 设备信息： Windows7盗版旗舰 32位，多年未曾重装 具体表现： <em class='search-result-highlight'>chrome</em> 快捷方式 -属性→ 有hao123的网址尾巴 打开<em class='search-result-highlight'>chrome</em> ，会弹出……avast检测 →<em class='search-result-highlight'>无</em>效 <em class='search-result-highlight'>chrome</em>快捷方式改名→ <em class='search-result-highlight'>无</em>效 <em class='search-result-highlight'>chrome</em>-扩展，删除最近安装的扩展，不怎么使用的扩展→ <em class='search-result-highlight'>无</em>效 <em class='search-result-highlight'>chrome</em>-设置-启动时-设置网页（空） → <em class='search-result-highlight'>无</em>效 谷歌软件清理工具software……","user":{"id":575219,"nickname":"依然沉醉东风","slug":"f1a375e21705","avatar_url":"https://upload.jianshu.io/users/upload_avatars/575219/ac32baed8408.jpg"},"notebook":{"id":1167232,"name":"日记本"},"commentable":true,"public_comments_count":10,"likes_count":4,"views_count":4721,"total_rewards_count":0,"first_shared_at":"2017-03-29T10:25:12.000Z"},{"id":77037229,"title":"<em class='search-result-highlight'>Chrome</em>浏览器默认打开<em class='search-result-highlight'>无</em>痕模式","slug":"3cc3bb2e5248","content":"……在目标C:\\Users\\Dust\\AppData\\Local\\Google\\<em class='search-result-highlight'>Chrome</em>\\Application\\<em class='search-result-highlight'>chrome</em>.exe，后面添加 -incognito。……即：C:\\Users\\Dust\\AppData\\Local\\Google\\<em class='search-result-highlight'>Chrome</em>\\Application\\<em class='search-result-highlight'>chrome</em>.exe -incognito 4.……②另外，-incognito前面有一个空格，要不然会报错，<em class='search-result-highlight'>无</em>法保存。……","user":{"id":5260771,"nickname":"赵福强","slug":"68ae397085e8","avatar_url":"https://upload.jianshu.io/users/upload_avatars/5260771/383f3e43-e1be-4aea-b86c-0cb7f0db87fe.jpg"},"notebook":{"id":10924886,"name":"解决方案"},"commentable":true,"public_comments_count":0,"likes_count":0,"views_count":36,"total_rewards_count":0,"first_shared_at":"2020-09-10T04:20:05.000Z"}],"related_users":[],"more_related_users":null,"related_collections":[],"more_related_collections":null}